DecatestNG VER:B1.13 
Registers values :-

                          DEV_ID 	[0x00000000]  =	0xDECA0420
                       EUI_64_LO 	[0x00000004]  =	0x00000000
                       EUI_64_HI 	[0x00000008]  =	0xFFFFFFFF
                          PANADR 	[0x0000000C]  =	0xFFFFFFFF
                         SYS_CFG 	[0x00000010]  =	0x00000008
                    ADR_FILT_CFG 	[0x00000014]  =	0x00000000
                        SYS_TIME 	[0x00000018]  =	0x834441AA
                     TX_FCTRL_LO 	[0x0000001C]  =	0x003F900C
                     TX_FCTRL_HI 	[0x00000020]  =	0x00000000
                         DX_TIME 	[0x00000024]  =	0x00000000
                       DREF_TIME 	[0x00000030]  =	0x00000000
                         RX_FWTO 	[0x00000034]  =	0x00000000
                        SYS_CTRL 	[0x00000038]  =	0x00000000
                   SYS_ENABLE_LO 	[0x0000003C]  =	0x3427D000
                   SYS_ENABLE_HI 	[0x00000040]  =	0x00000000
                   SYS_STATUS_LO 	[0x00000044]  =	0x00800102
                   SYS_STATUS_HI 	[0x00000048]  =	0x00000000
                        RX_FINFO 	[0x0000004C]  =	0x03AFD00C
                       RX_TIME_0 	[0x00000050]  =	0x83831CD6
                      TX_TIME_LO 	[0x00000054]  =	0x00000000
                      TX_TIME_HI 	[0x00000058]  =	0x00000000
                       TX_TIME_2 	[0x0000005C]  =	0x00000000
                         TX_ANTD 	[0x00000060]  =	0x00004015
                        ACK_RESP 	[0x00010000]  =	0x00000016
                        TX_POWER 	[0x00010004]  =	0x82828282
                       CHAN_CTRL 	[0x00010008]  =	0x00182491
                      LE_PEND_01 	[0x0001000C]  =	0x00000000
                      LE_PEND_23 	[0x00010010]  =	0x00000000
                            FCMD 	[0x00010014]  =	0x00000002
                     FCMD_STATUS 	[0x00010018]  =	0x00000002
                       FINT_STAT 	[0x0001001C]  =	0x00000000
                      REGMAP_VER 	[0x00010020]  =	0x0000000B
                        STS_CFG0 	[0x00020000]  =	0x00004007
                        STS_CTRL 	[0x00020004]  =	0x00000000
                     STS_STATUS0 	[0x00020008]  =	0x00000000
                     STS_STATUS1 	[0x0002000C]  =	0x00000000
-                        STS_KEY0 	[0x00020010]  =	0x00000000
-                        STS_KEY1 	[0x00020014]  =	0x00000000
-                        STS_KEY2 	[0x00020018]  =	0x00000000
-                        STS_KEY3 	[0x0002001C]  =	0x00000000
                         STS_IV0 	[0x00020020]  =	0x00000001
                         STS_IV1 	[0x00020024]  =	0x00000000
                         STS_IV2 	[0x00020028]  =	0x00000000
                         STS_IV3 	[0x0002002C]  =	0x00000000
                      STS_M2_GAP 	[0x00020030]  =	0x00000000
                     LCSS_MARGIN 	[0x00020034]  =	0x00000000
                       SDC_GRID0 	[0x00020038]  =	0xFFFFFFFF
                       SDC_GRID1 	[0x0002003C]  =	0xFFFFFFFF
                             MRX 	[0x00030000]  =	0x00000007
                    MRX_PGF_LUT0 	[0x00030004]  =	0x2F394608
                    MRX_PGF_LUT1 	[0x00030008]  =	0x00000000
                         ADC_CFG 	[0x0003000C]  =	0x9B382553
                     ADC_CFG_SLV 	[0x00030010]  =	0x00013670
                          DUMMY0 	[0x00030014]  =	0x00000000
                          DUMMY1 	[0x00030018]  =	0x00000000
                  ADC_THRESH_CFG 	[0x0003001C]  =	0x3A2F3A3A
              ADC_SLV_THRESH_CFG 	[0x00030020]  =	0x39332935
                         AGC_CFG 	[0x00030024]  =	0x0143DD32
                         DGC_CFG 	[0x00030028]  =	0x29C7E5FD
            DGC_ACC_CORR_LUT_CFG 	[0x0003002C]  =	0x000003E4
           DGC_CORR_LUT_7_16_CFG 	[0x00030030]  =	0x00000000
          DGC_CORR_LUT_17_26_CFG 	[0x00030034]  =	0x00000000
            DGC_CORR_NRG_LUT_CFG 	[0x00030038]  =	0x00000000
               DGC_DGC_LUT_0_CFG 	[0x0003003C]  =	0x000004B6
               DGC_DGC_LUT_1_CFG 	[0x00030040]  =	0x000011FD
               DGC_DGC_LUT_2_CFG 	[0x00030044]  =	0x0000187E
               DGC_DGC_LUT_3_CFG 	[0x00030048]  =	0x0000196E
               DGC_DGC_LUT_4_CFG 	[0x0003004C]  =	0x0000196E
               DGC_DGC_LUT_5_CFG 	[0x00030050]  =	0x0000196E
               DGC_DGC_LUT_6_CFG 	[0x00030054]  =	0x0000196E
     DGC_MIN_METRIC_LIM_WNDW_CFG 	[0x00030058]  =	0x01920000
                  ADC_THRESH_DBG 	[0x0003005C]  =	0x72898A7D
              ADC_SLV_THRESH_DBG 	[0x00030060]  =	0x39332935
                        ADC_DBG0 	[0x00030064]  =	0xC8904844
                        ADC_DBG1 	[0x00030068]  =	0x00000000
                        ADC_DBG2 	[0x0003006C]  =	0x00000094
                     ADC_DGC_DBG 	[0x00030070]  =	0x000D81BB
                         DGC_DBG 	[0x00030074]  =	0x00000400
                    DGC_LUT_OVRD 	[0x00030078]  =	0x00FD00FD
             AGC_REMOVE_ZERO_CFG 	[0x0003007C]  =	0x00000000
             ZEROTH_THRESH_0_CFG 	[0x00030080]  =	0x24172323
             ZEROTH_THRESH_1_CFG 	[0x00030084]  =	0x24172323
             ZEROTH_THRESH_2_CFG 	[0x00030088]  =	0x24172323
             ZEROTH_THRESH_3_CFG 	[0x0003008C]  =	0x24172323
             ZEROTH_THRESH_4_CFG 	[0x00030090]  =	0x24172323
             ZEROTH_THRESH_5_CFG 	[0x00030094]  =	0x24172323
             ZEROTH_THRESH_6_CFG 	[0x00030098]  =	0x24172323
         ZEROTH_THRESH_SLV_0_CFG 	[0x0003009C]  =	0x231B121E
         ZEROTH_THRESH_SLV_1_CFG 	[0x000300A0]  =	0x231B121E
         ZEROTH_THRESH_SLV_2_CFG 	[0x000300A4]  =	0x231B121E
         ZEROTH_THRESH_SLV_3_CFG 	[0x000300A8]  =	0x231B121E
         ZEROTH_THRESH_SLV_4_CFG 	[0x000300AC]  =	0x231B121E
         ZEROTH_THRESH_SLV_5_CFG 	[0x000300B0]  =	0x231B121E
         ZEROTH_THRESH_SLV_6_CFG 	[0x000300B4]  =	0x231B121E
       DGC_OVERRIDE_THRESH_0_CFG 	[0x000300B8]  =	0x3A2F3A3A
       DGC_OVERRIDE_THRESH_1_CFG 	[0x000300BC]  =	0x2C1D2A29
       DGC_OVERRIDE_THRESH_2_CFG 	[0x000300C0]  =	0x30212F2E
       DGC_OVERRIDE_THRESH_3_CFG 	[0x000300C4]  =	0x2D1E2A2C
       DGC_OVERRIDE_THRESH_4_CFG 	[0x000300C8]  =	0x2D1E2B2C
       DGC_OVERRIDE_THRESH_5_CFG 	[0x000300CC]  =	0x2A212B2A
       DGC_OVERRIDE_THRESH_6_CFG 	[0x000300D0]  =	0x2C1E2A2B
   DGC_OVERRIDE_THRESH_SLV_0_CFG 	[0x000300D4]  =	0x39332935
   DGC_OVERRIDE_THRESH_SLV_1_CFG 	[0x000300D8]  =	0x2B211924
   DGC_OVERRIDE_THRESH_SLV_2_CFG 	[0x000300DC]  =	0x2F251E29
   DGC_OVERRIDE_THRESH_SLV_3_CFG 	[0x000300E0]  =	0x2C221927
   DGC_OVERRIDE_THRESH_SLV_4_CFG 	[0x000300E4]  =	0x2C221A27
   DGC_OVERRIDE_THRESH_SLV_5_CFG 	[0x000300E8]  =	0x29251A25
   DGC_OVERRIDE_THRESH_SLV_6_CFG 	[0x000300EC]  =	0x2B221926
                ARXA_CAP_ADC_CFG 	[0x000300F0]  =	0x00000000
                ARXB_CAP_ADC_CFG 	[0x000300F4]  =	0x00000000
                       STS_I_POS 	[0x000300F8]  =	0x00000000
                       STS_I_NEG 	[0x000300FC]  =	0x00000000
                       STS_Q_POS 	[0x00030100]  =	0x00000000
                       STS_Q_NEG 	[0x00030104]  =	0x00000000
                         STS_SUM 	[0x00030108]  =	0x00000000
                    PGFA_CAL_CFG 	[0x00040000]  =	0x00030000
                    PGFA_I_CTRL0 	[0x00040004]  =	0x00000000
                    PGFA_I_CTRL1 	[0x00040008]  =	0x0C889AB2
                    PGFA_Q_CTRL0 	[0x0004000C]  =	0x00000000
                    PGFA_Q_CTRL1 	[0x00040010]  =	0x0C8A8CE7
                    PGFA_CAL_STS 	[0x00040014]  =	0x00000000
                   PGFA_COMP_STS 	[0x00040018]  =	0x00000000
                    PGFB_CAL_CFG 	[0x0004001C]  =	0x00030000
                    PGFB_I_CTRL0 	[0x00040020]  =	0x00000000
                    PGFB_I_CTRL1 	[0x00040024]  =	0x0B9998EB
                    PGFB_Q_CTRL0 	[0x00040028]  =	0x00000000
                    PGFB_Q_CTRL1 	[0x0004002C]  =	0x12568E2E
                    PGFB_CAL_STS 	[0x00040030]  =	0x00000000
                   PGFB_COMP_STS 	[0x00040034]  =	0x00000000
               PGF_LUT_OVRD_CTRL 	[0x00040038]  =	0x00000000
                     PGFA_I_LUT0 	[0x0004003C]  =	0x00000000
                     PGFA_I_LUT1 	[0x00040040]  =	0x00000000
                     PGFA_I_LUT2 	[0x00040044]  =	0x00000000
                     PGFA_Q_LUT0 	[0x00040048]  =	0x00000000
                     PGFA_Q_LUT1 	[0x0004004C]  =	0x00000000
                     PGFA_Q_LUT2 	[0x00040050]  =	0x00000000
                     PGFB_I_LUT0 	[0x00040054]  =	0x00000000
                     PGFB_I_LUT1 	[0x00040058]  =	0x00000000
                     PGFB_I_LUT2 	[0x0004005C]  =	0x00000000
                     PGFB_Q_LUT0 	[0x00040060]  =	0x00000000
                     PGFB_Q_LUT1 	[0x00040064]  =	0x00000000
                     PGFB_Q_LUT2 	[0x00040068]  =	0x00000000
                 PGFA_LDO_EN_CFG 	[0x0004006C]  =	0x046504EF
                 PGFB_LDO_EN_CFG 	[0x00040070]  =	0x046504EF
           ADC_OFFSET_CAL_STATUS 	[0x00040074]  =	0x00000003
             ADC_OFFSET_CAL_CTRL 	[0x00040078]  =	0x00000000
             ADC_OFFSET_CAL_CFG0 	[0x0004007C]  =	0x291F0A48
             ADC_OFFSET_CAL_CFG1 	[0x00040080]  =	0x0000FA3F
        ADC_OFFSET_CAL_RXA_GAIN0 	[0x00040084]  =	0x200F1A23
        ADC_OFFSET_CAL_RXA_GAIN8 	[0x00040088]  =	0x1E131728
       ADC_OFFSET_CAL_RXA_GAIN16 	[0x0004008C]  =	0x2310181F
       ADC_OFFSET_CAL_RXA_GAIN17 	[0x00040090]  =	0x2A051A24
       ADC_OFFSET_CAL_RXA_GAIN18 	[0x00040094]  =	0x170F161F
       ADC_OFFSET_CAL_RXA_GAIN19 	[0x00040098]  =	0x1A171229
       ADC_OFFSET_CAL_RXA_GAIN23 	[0x0004009C]  =	0x1E09142B
        ADC_OFFSET_CAL_RXB_GAIN0 	[0x000400A0]  =	0x26241924
        ADC_OFFSET_CAL_RXB_GAIN8 	[0x000400A4]  =	0x251F1923
       ADC_OFFSET_CAL_RXB_GAIN16 	[0x000400A8]  =	0x251E1C23
       ADC_OFFSET_CAL_RXB_GAIN17 	[0x000400AC]  =	0x1B2C0E31
       ADC_OFFSET_CAL_RXB_GAIN18 	[0x000400B0]  =	0x222C1C23
       ADC_OFFSET_CAL_RXB_GAIN19 	[0x000400B4]  =	0x2423221D
       ADC_OFFSET_CAL_RXB_GAIN23 	[0x000400B8]  =	0x301D1629
                          DTUNE0 	[0x00060000]  =	0x0401101C
                          DTUNE1 	[0x00060004]  =	0x000B0000
                          DTUNE2 	[0x00060008]  =	0x4D29169A
                          DTUNE3 	[0x0006000C]  =	0xB4E135BD
                          DTUNE4 	[0x00060010]  =	0x00204E0E
                          DTUNE5 	[0x00060014]  =	0x40B4B420
                          DTUNE6 	[0x00060018]  =	0xCBECBC45
                          DTUNE7 	[0x0006001C]  =	0x0C0AC8C8
                           DIAG0 	[0x00060020]  =	0x00035900
                           DIAG1 	[0x00060024]  =	0x000007A6
                           DIAG2 	[0x00060028]  =	0x000001AF
                           DIAG3 	[0x0006002C]  =	0x3E0000FC
                           DIAG4 	[0x00060030]  =	0x000003C3
                           DIAG5 	[0x00060034]  =	0x00000000
                           DIAG6 	[0x00060038]  =	0x00000000
                           DSTAT 	[0x0006003C]  =	0x017A9840
                         RF_OVR0 	[0x00070000]  =	0x00000000
                         RF_OVR1 	[0x00070004]  =	0x00000000
                    RF_CTRL_MASK 	[0x00070008]  =	0x00000000
                     RX_CTRL0_LO 	[0x0007000C]  =	0x23EF81A6
                     RX_CTRL1_LO 	[0x00070010]  =	0x00EF81A6
                     RX_CTRL0_HI 	[0x00070014]  =	0x5A805264
                     RX_CTRL1_HI 	[0x00070018]  =	0x5A805264
                      TX_CTRL_LO 	[0x0007001C]  =	0x040C0740
                      TX_CTRL_HI 	[0x00070020]  =	0x1C020034
                        RX_TEST0 	[0x00070024]  =	0x00000000
                        RX_TEST1 	[0x00070028]  =	0x00000000
                        PLL_TEST 	[0x0007002C]  =	0x00000000
                         TX_TEST 	[0x00070030]  =	0x00000000
                        SPARE_IO 	[0x00070034]  =	0x00FFF000
                         TESTMUX 	[0x00070038]  =	0x00000044
                        SAR_TEST 	[0x0007003C]  =	0x0B810000
                     PG_TST_DATA 	[0x00070040]  =	0x00000000
                       RF_STATUS 	[0x00070044]  =	0x0000000B
                     LDO_TUNE_LO 	[0x00070048]  =	0x88A88788
                     LDO_TUNE_HI 	[0x0007004C]  =	0x07098868
                        LDO_CTRL 	[0x00070050]  =	0x00000000
                        LDO_VOUT 	[0x00070054]  =	0x057FFFFF
                       LDO_RLOAD 	[0x00070058]  =	0x08001C00
                      LDO_BYPASS 	[0x0007005C]  =	0x00000000
                      LDO_DC_TST 	[0x00070060]  =	0x00000000
                  RF_SWITCH_CTRL 	[0x00070064]  =	0x00000000
                  RF_SWITCH_LUT0 	[0x00070068]  =	0x73333330
                  RF_SWITCH_LUT1 	[0x0007006C]  =	0x00007777
                       LDO_CTRL2 	[0x00070070]  =	0x00380038
                          PWRMON 	[0x00070074]  =	0x00000000
                        SAR_CTRL 	[0x00080000]  =	0x00000000
                      SAR_STATUS 	[0x00080004]  =	0x00000000
                     SAR_READING 	[0x00080008]  =	0x00000000
                    SAR_OLD_READ 	[0x0008000C]  =	0x00000000
                        PGC_CTRL 	[0x00080010]  =	0x00000090
                      PGC_STATUS 	[0x00080014]  =	0x00000000
                         PG_TEST 	[0x00080018]  =	0x00000000
                   PG_CAL_TARGET 	[0x0008001C]  =	0x000000A6
                      DELTA_VBAT 	[0x00080020]  =	0x0000008A
                      DELTA_TEMP 	[0x00080024]  =	0x0000008A
                       DELTA_IRQ 	[0x00080028]  =	0x00000000
                        FOSC_CAL 	[0x0008002C]  =	0x0001C400
                         PLL_CFG 	[0x00090000]  =	0x00001D34
                 PLL_COARSE_CODE 	[0x00090004]  =	0x38000606
                         PLL_CAL 	[0x00090008]  =	0x00400041
                      PLL_STATUS 	[0x0009000C]  =	0x00000467
                      PLL_COMMON 	[0x00090010]  =	0x00008104
                            XTAL 	[0x00090014]  =	0x06053820
               PLL_LOCK_TIME_DBG 	[0x00090018]  =	0x00000000
                   PLL_MODE_CTRL 	[0x0009001C]  =	0x00000441
               PLL_SEED_OVERRIDE 	[0x00090020]  =	0x00000000
                  PLL_K_OVERRIDE 	[0x00090024]  =	0x00000000
                  PLL_N_OVERRIDE 	[0x00090028]  =	0x00000000
                      PLL_LF_CFG 	[0x0009002C]  =	0x0008AC42
                     IP_M_TOA_LO 	[0x000C0000]  =	0xE43A6F72
                     IP_M_TOA_HI 	[0x000C0004]  =	0x0011C487
                   STS0_M_TOA_LO 	[0x000C0008]  =	0x00000000
                   STS0_M_TOA_HI 	[0x000C000C]  =	0x00000000
                   STS1_M_TOA_LO 	[0x000C0010]  =	0x00000000
                   STS1_M_TOA_HI 	[0x000C0014]  =	0x00000000
                   STS2_M_TOA_LO 	[0x000C0018]  =	0x00000000
                   STS2_M_TOA_HI 	[0x000C001C]  =	0x00000000
                   STS3_M_TOA_LO 	[0x000C0020]  =	0x00000000
                   STS3_M_TOA_HI 	[0x000C0024]  =	0x00000000
                     IP_S_TOA_LO 	[0x000C0028]  =	0x00000000
                     IP_S_TOA_HI 	[0x000C002C]  =	0x00000000
                   STS0_S_TOA_LO 	[0x000C0030]  =	0x00000000
                   STS0_S_TOA_HI 	[0x000C0034]  =	0x00000000
                   STS1_S_TOA_LO 	[0x000C0038]  =	0x00000000
                   STS1_S_TOA_HI 	[0x000C003C]  =	0x00000000
                   STS2_S_TOA_LO 	[0x000C0040]  =	0x00000000
                   STS2_S_TOA_HI 	[0x000C0044]  =	0x00000000
                   STS3_S_TOA_LO 	[0x000C0048]  =	0x00000000
                   STS3_S_TOA_HI 	[0x000C004C]  =	0x00000000
                 CIA_TDOA_PDOA_0 	[0x000C0050]  =	0x00000000
                 CIA_TDOA_PDOA_1 	[0x000C0054]  =	0x00000000
                 CIA_TDOA_PDOA_2 	[0x000C0058]  =	0x00000000
                RX_ANTENNA_DELAY 	[0x000C005C]  =	0x2C514015
             FP_CONFIDENCE_LIMIT 	[0x000C0060]  =	0x00380310
        FP_CONFIDENCE_THRESHOLDS 	[0x000C0064]  =	0x00001517
                      ACC_CONFIG 	[0x000C0068]  =	0x000003FF
                      PDOA_TABLE 	[0x000C006C]  =	0x00000000
                    IP_CONFIG_LO 	[0x000C0070]  =	0x0000624D
                    IP_CONFIG_HI 	[0x000C0074]  =	0x32000004
                   STS_CONFIG_LO 	[0x000C0078]  =	0x00103A0C
                   STS_CONFIG_HI 	[0x000C007C]  =	0x303EED74
          CIA_COEFFICIENT_ADJUST 	[0x000C0080]  =	0x00020000
        CIA_COEFFICIENT_ADJUST_B 	[0x000C0084]  =	0x00000000
               PGF_DELAY_COMP_LO 	[0x000C0088]  =	0x00000000
               PGF_DELAY_COMP_HI 	[0x000C008C]  =	0x00000000
                      EQ_COEFF_A 	[0x000C0090]  =	0x06A09C01
                      EQ_COEFF_B 	[0x000C0094]  =	0x35A2F93F
                      EQ_COEFF_C 	[0x000C0098]  =	0x3B6193E5
                      EQ_COEFF_D 	[0x000C009C]  =	0x3F80101A
           PDOA_GAIN_CTRL_COMP_A 	[0x000C00A0]  =	0x00000000
           PDOA_GAIN_CTRL_COMP_B 	[0x000C00A4]  =	0x00000000
           PDOA_GAIN_CTRL_COMP_C 	[0x000C00A8]  =	0x00000000
           PDOA_GAIN_CTRL_COMP_D 	[0x000C00AC]  =	0x00000000
              PDOA_ISO_PHASE_ADJ 	[0x000C00B0]  =	0x00000000
           PDOA_ISO_SCALE_FACTOR 	[0x000C00B4]  =	0x00000000
                      EVENT_CTRL 	[0x000F0000]  =	0x00000001
                    EVENT_COUNT0 	[0x000F0004]  =	0x00010000
                    EVENT_COUNT1 	[0x000F0008]  =	0x00000DFF
                    EVENT_COUNT2 	[0x000F000C]  =	0x00000000
                    EVENT_COUNT3 	[0x000F0010]  =	0x00000000
                    EVENT_COUNT4 	[0x000F0014]  =	0x00000000
                    EVENT_COUNT5 	[0x000F0018]  =	0x00000000
                    EVENT_COUNT6 	[0x000F001C]  =	0x0E060000
                    EVENT_COUNT7 	[0x000F0020]  =	0x00000000
                     ADC_MEM_PTR 	[0x000F0024]  =	0x00000000
                      TEST_CTRL0 	[0x000F0028]  =	0x01000000
                    SYS_STATE_LO 	[0x000F002C]  =	0x00130000
                         TST_DBG 	[0x000F0030]  =	0x00000000
                    TEST_LOGGING 	[0x000F0034]  =	0x00000008
                  STATUS_LOGGING 	[0x000F0038]  =	0x00000000
                         CTR_DBG 	[0x000F003C]  =	0x1F9A3DE4
                      TEST_CTRL1 	[0x000F0040]  =	0x00000300
                             CR0 	[0x00100000]  =	0x0008C800
                             CR1 	[0x00100004]  =	0x0008CC0C
                             CR2 	[0x00100008]  =	0x0009D014
                             CR3 	[0x0010000C]  =	0x000AD428
                             CR4 	[0x00100010]  =	0x000AD840
                             CR5 	[0x00100014]  =	0x000BDC80
                             CR6 	[0x00100018]  =	0x000BE0C0
                             CR7 	[0x0010001C]  =	0x00062800
                             CR8 	[0x00100020]  =	0x00062800
                             CR9 	[0x00100024]  =	0x00062800
                            CR10 	[0x00100028]  =	0x000BE000
                        SOFT_RST 	[0x00110000]  =	0x00010EFF
                        CLK_CTRL 	[0x00110004]  =	0x00300200
                        SEQ_CTRL 	[0x00110008]  =	0x80230738
                      SNOOZE_CNT 	[0x0011000C]  =	0x00000040
                 PWR_UP_TIMES_LO 	[0x00110010]  =	0x8874E3D0
                 PWR_UP_TIMES_HI 	[0x00110014]  =	0x000004D2
                        LED_CTRL 	[0x00110018]  =	0x00000020
                          RX_PPM 	[0x0011001C]  =	0x00000000
                       BIAS_CTRL 	[0x00110030]  =	0x00000272
                      TIMER_CTRL 	[0x00110034]  =	0x00000000
                  LP_TB_SYS_TIME 	[0x00110038]  =	0x00000000
                 LP_TB_XTAL_TIME 	[0x0011003C]  =	0x00000000
                        LP_TB_EN 	[0x00110040]  =	0x00000000
                   CIA_DIAG_0_ID 	[0x00150000]  =	0x0000000D
                   CIA_DIAG_1_ID 	[0x00150004]  =	0x00007800
                   CIA_DIAG_2_ID 	[0x00150008]  =	0x29EC5F78
                   CIA_DIAG_3_ID 	[0x0015000C]  =	0x09040A1A
                   CIA_DIAG_4_ID 	[0x00150010]  =	0x67857E7C
                 IP_M_0_DIAG0_ID 	[0x00150014]  =	0x27202A25
                 IP_M_0_DIAG1_ID 	[0x00150018]  =	0x024014DA
                 IP_M_0_DIAG2_ID 	[0x0015001C]  =	0x07050468
                 IP_M_0_DIAG3_ID 	[0x00150020]  =	0x64C60A4F
                 IP_M_0_DIAG4_ID 	[0x00150024]  =	0x5AC85F4C
                 IP_M_0_DIAG5_ID 	[0x00150028]  =	0x7BFE69C1
                 IP_M_0_DIAG6_ID 	[0x0015002C]  =	0xC0590B03
                 IP_M_0_DIAG7_ID 	[0x00150030]  =	0x146BA011
                 IP_M_0_DIAG8_ID 	[0x00150034]  =	0x0C141912
                 IP_M_0_DIAG9_ID 	[0x00150038]  =	0x3A2576CD
                IP_M_0_DIAG10_ID 	[0x0015003C]  =	0xFBD2B5F6
                IP_M_0_DIAG11_ID 	[0x00150040]  =	0xBE2B358C
                IP_M_0_DIAG12_ID 	[0x00150044]  =	0x0ED5028C
                STS_M_0_DIAG0_ID 	[0x00150048]  =	0x7D7D7005
                STS_M_0_DIAG1_ID 	[0x0015004C]  =	0xBA4438C4
                STS_M_0_DIAG2_ID 	[0x00150050]  =	0x667F84BB
                STS_M_0_DIAG3_ID 	[0x00150054]  =	0x00E8F30A
                STS_M_0_DIAG4_ID 	[0x00150058]  =	0x2C2E4FDF
                STS_M_0_DIAG5_ID 	[0x0015005C]  =	0x7C10A880
                STS_M_0_DIAG6_ID 	[0x00150060]  =	0x3A3D9DAE
                STS_M_0_DIAG7_ID 	[0x00150064]  =	0x22CCA799
                STS_M_0_DIAG8_ID 	[0x00150068]  =	0x7657A8D7
                STS_M_0_DIAG9_ID 	[0x0015006C]  =	0xB2E01404
               STS_M_0_DIAG10_ID 	[0x00150070]  =	0x71B89F8A
               STS_M_0_DIAG11_ID 	[0x00150074]  =	0x10445922
               STS_M_0_DIAG12_ID 	[0x00150078]  =	0xD13CA56A
                STS_M_1_DIAG0_ID 	[0x0015007C]  =	0x105B1084
                STS_M_1_DIAG1_ID 	[0x00150080]  =	0xA1BCA39E
                STS_M_1_DIAG2_ID 	[0x00150084]  =	0x2E6D5B52
                STS_M_1_DIAG3_ID 	[0x00150088]  =	0x37EB7FB5
                STS_M_1_DIAG4_ID 	[0x0015008C]  =	0x9448925B
                STS_M_1_DIAG5_ID 	[0x00150090]  =	0xA1E72200
                STS_M_1_DIAG6_ID 	[0x00150094]  =	0x35983F85
                STS_M_1_DIAG7_ID 	[0x00150098]  =	0x5C53E8FF
                STS_M_1_DIAG8_ID 	[0x0015009C]  =	0xEB8B1543
                STS_M_1_DIAG9_ID 	[0x001500A0]  =	0xE7FADF95
               STS_M_1_DIAG10_ID 	[0x001500A4]  =	0xA58E8A16
               STS_M_1_DIAG11_ID 	[0x001500A8]  =	0xE5DC6CEA
               STS_M_1_DIAG12_ID 	[0x001500AC]  =	0x41A90059
                STS_M_2_DIAG0_ID 	[0x001500B0]  =	0xFC72712F
                STS_M_2_DIAG1_ID 	[0x001500B4]  =	0x10C44E6D
                STS_M_2_DIAG2_ID 	[0x001500B8]  =	0x25780E91
                STS_M_2_DIAG3_ID 	[0x001500BC]  =	0xE54441DD
                STS_M_2_DIAG4_ID 	[0x001500C0]  =	0xE12FE4EF
                STS_M_2_DIAG5_ID 	[0x001500C4]  =	0xBA41B81D
                STS_M_2_DIAG6_ID 	[0x001500C8]  =	0xDFBCAEE9
                STS_M_2_DIAG7_ID 	[0x001500CC]  =	0x06AEA8C8
                STS_M_2_DIAG8_ID 	[0x001500D0]  =	0x72787979
                STS_M_2_DIAG9_ID 	[0x001500D4]  =	0x645F08C1
               STS_M_2_DIAG10_ID 	[0x001500D8]  =	0x5751D775
               STS_M_2_DIAG11_ID 	[0x001500DC]  =	0xC362088A
               STS_M_2_DIAG12_ID 	[0x001500E0]  =	0xBDE398F7
                STS_M_3_DIAG0_ID 	[0x001500E4]  =	0x202DF7F7
                STS_M_3_DIAG1_ID 	[0x001500E8]  =	0x433FBB0A
                STS_M_3_DIAG2_ID 	[0x001500EC]  =	0x58585CBD
                STS_M_3_DIAG3_ID 	[0x001500F0]  =	0xD8FF93A8
                STS_M_3_DIAG4_ID 	[0x001500F4]  =	0x91380746
                STS_M_3_DIAG5_ID 	[0x001500F8]  =	0xEA75E76B
                STS_M_3_DIAG6_ID 	[0x001500FC]  =	0x301CB091
                STS_M_3_DIAG7_ID 	[0x00150100]  =	0x0FE2496E
                STS_M_3_DIAG8_ID 	[0x00150104]  =	0x0D06E6FE
                STS_M_3_DIAG9_ID 	[0x00150108]  =	0x323C048C
               STS_M_3_DIAG10_ID 	[0x0015010C]  =	0x8B84726C
               STS_M_3_DIAG11_ID 	[0x00150110]  =	0x145B5F39
               STS_M_3_DIAG12_ID 	[0x00150114]  =	0x71328AA6
                 IP_S_0_DIAG0_ID 	[0x00150118]  =	0x95383FC4
                 IP_S_0_DIAG1_ID 	[0x0015011C]  =	0xCE25687A
                 IP_S_0_DIAG2_ID 	[0x00150120]  =	0x4D3D671F
                 IP_S_0_DIAG3_ID 	[0x00150124]  =	0x6AFDC145
                 IP_S_0_DIAG4_ID 	[0x00150128]  =	0x0D18BDEB
                 IP_S_0_DIAG5_ID 	[0x0015012C]  =	0xA96620A8
                 IP_S_0_DIAG6_ID 	[0x00150130]  =	0x6EE8F718
                 IP_S_0_DIAG7_ID 	[0x00150134]  =	0x0F258230
                 IP_S_0_DIAG8_ID 	[0x00150138]  =	0x5FB8C575
                 IP_S_0_DIAG9_ID 	[0x0015013C]  =	0xA04DB02C
                IP_S_0_DIAG10_ID 	[0x00150140]  =	0x83935EBB
                IP_S_0_DIAG11_ID 	[0x00150144]  =	0x008CD202
                IP_S_0_DIAG12_ID 	[0x00150148]  =	0x58696A56
                STS_S_0_DIAG0_ID 	[0x0015014C]  =	0xBF142C14
                STS_S_0_DIAG1_ID 	[0x00150150]  =	0xC978D691
                STS_S_0_DIAG2_ID 	[0x00150154]  =	0xCC4A2C42
                STS_S_0_DIAG3_ID 	[0x00150158]  =	0xC27CBE87
                STS_S_0_DIAG4_ID 	[0x0015015C]  =	0x6FD23878
                STS_S_0_DIAG5_ID 	[0x00150160]  =	0xF773FB89
                STS_S_0_DIAG6_ID 	[0x00150164]  =	0x0753C048
                STS_S_0_DIAG7_ID 	[0x00150168]  =	0x20172CFE
                STS_S_0_DIAG8_ID 	[0x0015016C]  =	0xCC442ADB
                STS_S_0_DIAG9_ID 	[0x00150170]  =	0xB836FAA9
               STS_S_0_DIAG10_ID 	[0x00150174]  =	0x784A9D10
               STS_S_0_DIAG11_ID 	[0x00150178]  =	0x5A7D522B
               STS_S_0_DIAG12_ID 	[0x0015017C]  =	0x1C5C52E4
                STS_S_1_DIAG0_ID 	[0x00150180]  =	0x08236DDC
                STS_S_1_DIAG1_ID 	[0x00150184]  =	0x216649B0
                STS_S_1_DIAG2_ID 	[0x00150188]  =	0xC8DA01D2
                STS_S_1_DIAG3_ID 	[0x0015018C]  =	0x00026552
                STS_S_1_DIAG4_ID 	[0x00150190]  =	0x13AEE9CD
                STS_S_1_DIAG5_ID 	[0x00150194]  =	0xE942E83F
                STS_S_1_DIAG6_ID 	[0x00150198]  =	0x5BEBA3AF
                STS_S_1_DIAG7_ID 	[0x0015019C]  =	0x5EB9C520
                STS_S_1_DIAG8_ID 	[0x001501A0]  =	0xAB875A68
                STS_S_1_DIAG9_ID 	[0x001501A4]  =	0xBE4E102F
               STS_S_1_DIAG10_ID 	[0x001501A8]  =	0x4EE165BB
               STS_S_1_DIAG11_ID 	[0x001501AC]  =	0x8110F972
               STS_S_1_DIAG12_ID 	[0x001501B0]  =	0xF71D4859
                STS_S_2_DIAG0_ID 	[0x001501B4]  =	0xD04873A5
                STS_S_2_DIAG1_ID 	[0x001501B8]  =	0x6A2FF8B6
                STS_S_2_DIAG2_ID 	[0x001501BC]  =	0x00854800
                STS_S_2_DIAG3_ID 	[0x001501C0]  =	0x362EDE3C
                STS_S_2_DIAG4_ID 	[0x001501C4]  =	0x9E0A84A2
                STS_S_2_DIAG5_ID 	[0x001501C8]  =	0xB3D4557E
                STS_S_2_DIAG6_ID 	[0x001501CC]  =	0x426E909A
                STS_S_2_DIAG7_ID 	[0x001501D0]  =	0x747F39AB
                STS_S_2_DIAG8_ID 	[0x001501D4]  =	0xB4A95C1C
                STS_S_2_DIAG9_ID 	[0x001501D8]  =	0xC2C6CBEC
               STS_S_2_DIAG10_ID 	[0x001501DC]  =	0xEC0C8C60
               STS_S_2_DIAG11_ID 	[0x001501E0]  =	0x755B2A1B
               STS_S_2_DIAG12_ID 	[0x001501E4]  =	0x00D65A65
                STS_S_3_DIAG0_ID 	[0x001501E8]  =	0xBAD29FBA
                STS_S_3_DIAG1_ID 	[0x001501EC]  =	0xB0358238
                STS_S_3_DIAG2_ID 	[0x001501F0]  =	0xE42B91D3
                STS_S_3_DIAG3_ID 	[0x001501F4]  =	0x8500F100
                STS_S_3_DIAG4_ID 	[0x001501F8]  =	0x773B7C1A
                STS_S_3_DIAG5_ID 	[0x001501FC]  =	0xD4200185
                STS_S_3_DIAG6_ID 	[0x00150200]  =	0xD75F10DE
                STS_S_3_DIAG7_ID 	[0x00150204]  =	0x003A1990
                STS_S_3_DIAG8_ID 	[0x00150208]  =	0x49BF79BF
                STS_S_3_DIAG9_ID 	[0x0015020C]  =	0xCE2FA907
               STS_S_3_DIAG10_ID 	[0x00150210]  =	0xEFFF369A
               STS_S_3_DIAG11_ID 	[0x00150214]  =	0xE7BF4730
               STS_S_3_DIAG12_ID 	[0x00150218]  =	0x9BA1DDD3
